{
	"name": "tw_php_i18n",
	"dockerComposeFile": "../docker-compose.yaml",
	"service": "php-apache-environment",
	"workspaceFolder": "/var/www/html",
	"shutdownAction": "stopCompose",
	"remoteUser": "${localEnv:USER}",
	"containerUser": "${localEnv:USER}",
	"customizations": {
		"vscode": {
			"extensions": [
				"ms-python.python",
				"ms-azuretools.vscode-docker",
				"mhutchie.git-graph",
				"donjayamanne.githistory"
			]
		}
	},
	
	"features": {
		"ghcr.io/devcontainers/features/git:1": {},
		"ghcr.io/devcontainers/features/sshd:1": {}
	}
}
